## Interface: 11200
## Title: Warrior Tools
## Notes: Various useful APIs for warriors
## Version: 0.2
## Author: Hagson
## Dependencies: SuperMacro, VGAttackBar, SP_Overpower, MobInfo2
WarriorTools.lua
